Assignment 2 R
…
## Importing data
#For fang_et_al_genotypes.txt file:
fang <- read_tsv("./fang_et_al_genotypes.txt")

## Rows: 2782 Columns: 986
## -- Column specification --------------------------------------------------------
## Delimiter: "\t"
## chr (986): Sample_ID, JG_OTU, Group, abph1.20, abph1.22, ae1.3, ae1.4, ae1.5...
## 
## i Use `spec()` to retrieve the full column specification for this data.
## i Specify the column types or set `show_col_types = FALSE` to quiet this message.

print(fang)

## # A tibble: 2,782 x 986
##    Sample_ID JG_OTU  Group abph1.20 abph1.22 ae1.3 ae1.4 ae1.5 an1.4 ba1.6 ba1.9
##    <chr>     <chr>   <chr> <chr>    <chr>    <chr> <chr> <chr> <chr> <chr> <chr>
##  1 SL-15     T-aust~ TRIPS ?/?      ?/?      T/T   G/G   T/T   C/C   ?/?   G/G  
##  2 SL-16     T-aust~ TRIPS ?/?      ?/?      T/T   ?/?   T/T   C/C   A/G   G/G  
##  3 SL-11     T-brav~ TRIPS ?/?      ?/?      T/T   G/G   T/T   ?/?   G/G   G/G  
##  4 SL-12     T-brav~ TRIPS ?/?      ?/?      T/T   G/G   T/T   C/C   G/G   G/G  
##  5 SL-18     T-cund  TRIPS ?/?      ?/?      T/T   G/G   T/T   C/C   ?/?   G/G  
##  6 SL-2      T-dact~ TRIPS ?/?      ?/?      T/T   G/G   T/T   C/C   A/G   G/G  
##  7 SL-4      T-dact~ TRIPS ?/?      ?/?      T/T   G/G   T/T   C/C   G/G   G/G  
##  8 SL-6      T-dact~ TRIPS ?/?      ?/?      T/T   G/G   T/T   C/C   ?/?   G/G  
##  9 SL-7      T-dact~ TRIPS ?/?      ?/?      T/T   G/G   T/T   C/C   G/G   G/G  
## 10 SL-5      T-dact~ TRIPS ?/?      ?/?      T/T   G/G   T/T   C/C   ?/?   G/G  
## # i 2,772 more rows
## # i 975 more variables: bt2.5 <chr>, bt2.7 <chr>, bt2.8 <chr>, Fea2.1 <chr>,
## #   Fea2.5 <chr>, id1.3 <chr>, lg2.11 <chr>, lg2.2 <chr>, pbf1.1 <chr>,
## #   pbf1.2 <chr>, pbf1.3 <chr>, pbf1.5 <chr>, pbf1.6 <chr>, pbf1.7 <chr>,
## #   pbf1.8 <chr>, PZA00003.11 <chr>, PZA00004.2 <chr>, PZA00005.8 <chr>,
## #   PZA00005.9 <chr>, PZA00006.13 <chr>, PZA00006.14 <chr>, PZA00008.1 <chr>,
## #   PZA00010.5 <chr>, PZA00013.10 <chr>, PZA00013.11 <chr>, ...
…
snp <- read_tsv("./snp_position.txt")

## Rows: 983 Columns: 15
## -- Column specification --------------------------------------------------------
## Delimiter: "\t"
## chr (9): SNP_ID, Chromosome, Position, alt_pos, mult_positions, amplicon, cd...
## dbl (6): cdv_marker_id, Genaissance_daa_id, Sequenom_daa_id, count_amplicons...
## 
## i Use `spec()` to retrieve the full column specification for this data.
## i Specify the column types or set `show_col_types = FALSE` to quiet this message.

print(snp)

## # A tibble: 983 x 15
##    SNP_ID   cdv_marker_id Chromosome Position  alt_pos mult_positions amplicon
##    <chr>            <dbl> <chr>      <chr>     <chr>   <chr>          <chr>   
##  1 abph1.20          5976 2          27403404  <NA>    <NA>           abph1   
##  2 abph1.22          5978 2          27403892  <NA>    <NA>           abph1   
##  3 ae1.3             6605 5          167889790 <NA>    <NA>           ae1     
##  4 ae1.4             6606 5          167889682 <NA>    <NA>           ae1     
##  5 ae1.5             6607 5          167889821 <NA>    <NA>           ae1     
##  6 an1.4             5982 1          240498509 <NA>    <NA>           an1     
##  7 ba1.6             3463 3          181362952 <NA>    <NA>           ba1     
##  8 ba1.9             3466 3          181362666 <NA>    <NA>           ba1     
##  9 bt2.5             5983 4          66290049  <NA>    <NA>           bt2     
## 10 bt2.7             5985 4          66290994  <NA>    <NA>           bt2     
## # i 973 more rows
## # i 8 more variables: cdv_map_feature.name <chr>, gene <chr>,
## #   `candidate/random` <chr>, Genaissance_daa_id <dbl>, Sequenom_daa_id <dbl>,
## #   count_amplicons <dbl>, count_cmf <dbl>, count_gene <dbl>
…
